{
    "$schema": "http://json-schema.org/draft-04/schema#",
    "title": "PARMS: relion.ctffind.ctffind4",
    "description": "Estimate micrograph contrast transfer functions using CTFFIND 4.1",
    "type": "object",
    "properties": {
        "input_star_mics": {
            "description": "Input micrographs STAR file:",
            "type": "string"
        },
        "use_noDW": {
            "description": "Use micrograph without dose-weighting?",
            "type": "boolean"
        },
        "do_phaseshift": {
            "description": "Estimate phase shifts?",
            "type": "boolean"
        },
        "phase_min": {
            "description": "Phase shift (deg) - Min:",
            "type": "number"
        },
        "phase_max": {
            "description": "Phase shift (deg) - Max:",
            "type": "number"
        },
        "phase_step": {
            "description": "Phase shift (deg) - Step:",
            "type": "number"
        },
        "dast": {
            "description": "Amount of astigmatism (A):",
            "type": "number"
        },
        "box": {
            "description": "FFT box size (pix):",
            "type": "integer"
        },
        "resmin": {
            "description": "Minimum resolution (A):",
            "type": "number"
        },
        "resmax": {
            "description": "Maximum resolution (A):",
            "type": "number"
        },
        "dfmin": {
            "description": "Minimum defocus value (A):",
            "type": "number"
        },
        "dfmax": {
            "description": "Maximum defocus value (A):",
            "type": "number"
        },
        "dfstep": {
            "description": "Defocus step size (A):",
            "type": "number"
        },
        "ctf_win": {
            "description": "Estimate CTF on window size (pix)",
            "type": "integer"
        },
        "use_given_ps": {
            "description": "Use power spectra from MotionCorr job?",
            "type": "boolean"
        },
        "fn_ctffind_exe": {
            "description": "CTFFIND-4.1 executable:",
            "type": "string"
        },
        "slow_search": {
            "description": "Use exhaustive search?",
            "type": "boolean"
        },
        "nr_mpi": {
            "description": "Number of MPI procs:",
            "type": "integer"
        },
        "do_queue": {
            "description": "Submit to queue?",
            "type": "boolean"
        },
        "queuename": {
            "description": "Queue name:",
            "type": "string"
        },
        "qsub": {
            "description": "Queue submit command:",
            "type": "string"
        },
        "qsubscript": {
            "description": "Standard submission script:",
            "type": "string"
        },
        "min_dedicated": {
            "description": "Minimum dedicated cores per node:",
            "type": "integer"
        },
        "other_args": {
            "description": "Additional arguments:",
            "type": "string"
        },
        "mpi_command": {
            "description": "MPI run command:",
            "type": "string"
        }
    }
}