{
    "$schema": "http://json-schema.org/draft-04/schema#",
    "title": "PARMS: pipeliner.fetch.pdb",
    "description": "Download atomic models from PDB",
    "type": "object",
    "properties": {
        "db_id": {
            "description": "PDB ID number",
            "type": "string"
        },
        "format": {
            "description": "Download format:",
            "type": "string"
        }
    }
}