{
    "$schema": "http://json-schema.org/draft-04/schema#",
    "title": "PARMS: proshade.map_utilities.overlay",
    "description": "Overlay one map/model on another ",
    "type": "object",
    "properties": {
        "static_struct": {
            "description": "Static map or coordinates",
            "type": "string"
        },
        "moving_struct": {
            "description": "Moving map or coordinates",
            "type": "string"
        },
        "add_space": {
            "description": "Add extra space around structure?",
            "type": "boolean"
        },
        "extra_space": {
            "description": "Extra space around structure",
            "type": "number"
        },
        "do_queue": {
            "description": "Submit to queue?",
            "type": "boolean"
        },
        "queuename": {
            "description": "Queue name:",
            "type": "string"
        },
        "qsub": {
            "description": "Queue submit command:",
            "type": "string"
        },
        "qsubscript": {
            "description": "Standard submission script:",
            "type": "string"
        },
        "min_dedicated": {
            "description": "Minimum dedicated cores per node:",
            "type": "integer"
        },
        "other_args": {
            "description": "Additional arguments:",
            "type": "string"
        }
    }
}