{
    "$schema": "http://json-schema.org/draft-04/schema#",
    "title": "PARMS: relion.map_utilities.filter_map",
    "description": "Apply low-pass and/or high-pass filters to a map",
    "type": "object",
    "properties": {
        "input_map": {
            "description": "Input map",
            "type": "string"
        },
        "do_lowpass": {
            "description": "Low pass filter the map?",
            "type": "boolean"
        },
        "lowpass": {
            "description": "Low pass filter resolution (\u212b)",
            "type": "number"
        },
        "do_highpass": {
            "description": "High pass filter the map?",
            "type": "boolean"
        },
        "highpass": {
            "description": "High pass filter resolution (\u212b)",
            "type": "number"
        },
        "do_advanced": {
            "description": "Use advanced options?",
            "type": "boolean"
        },
        "filter_direction": {
            "description": "Low-pass filter directionality",
            "type": "string"
        },
        "filter_edge_width": {
            "description": "Filter edge width (resolution shells)",
            "type": "integer"
        }
    }
}