{
    "$schema": "http://json-schema.org/draft-04/schema#",
    "title": "PARMS: relion.multibody.refine",
    "description": "3D refinement with multiple independent rigid bodies",
    "type": "object",
    "properties": {
        "fn_in": {
            "description": "Consensus refinement optimiser.star:",
            "type": "string"
        },
        "fn_cont": {
            "description": "Continue from here:",
            "type": "string"
        },
        "fn_bodies": {
            "description": "Body STAR file:",
            "type": "string"
        },
        "do_subtracted_bodies": {
            "description": "Reconstruct subtracted bodies?",
            "type": "boolean"
        },
        "sampling": {
            "description": "Initial angular sampling:",
            "type": "string"
        },
        "offset_range": {
            "description": "Initial offset range (pix):",
            "type": "number"
        },
        "offset_step": {
            "description": "Initial offset step (pix):",
            "type": "number"
        },
        "do_parallel_discio": {
            "description": "Use parallel disc I/O?",
            "type": "boolean"
        },
        "nr_pool": {
            "description": "Number of pooled particles:",
            "type": "integer"
        },
        "do_pad1": {
            "description": "Skip padding?",
            "type": "boolean"
        },
        "skip_gridding": {
            "description": "Skip gridding?",
            "type": "boolean"
        },
        "do_preread_images": {
            "description": "Pre-read all particles into RAM?",
            "type": "boolean"
        },
        "scratch_dir": {
            "description": "Copy particles to scratch directory:",
            "type": "string"
        },
        "do_combine_thru_disc": {
            "description": "Combine iterations through disc?",
            "type": "boolean"
        },
        "use_gpu": {
            "description": "Use GPU acceleration?",
            "type": "boolean"
        },
        "gpu_ids": {
            "description": "Which GPUs to use:",
            "type": "string"
        },
        "nr_mpi": {
            "description": "Number of MPI procs:",
            "type": "integer"
        },
        "mpi_command": {
            "description": "MPI run command:",
            "type": "string"
        },
        "nr_threads": {
            "description": "Number of threads:",
            "type": "integer"
        },
        "do_queue": {
            "description": "Submit to queue?",
            "type": "boolean"
        },
        "queuename": {
            "description": "Queue name:",
            "type": "string"
        },
        "qsub": {
            "description": "Queue submit command:",
            "type": "string"
        },
        "qsubscript": {
            "description": "Standard submission script:",
            "type": "string"
        },
        "min_dedicated": {
            "description": "Minimum dedicated cores per node:",
            "type": "integer"
        },
        "other_args": {
            "description": "Additional arguments:",
            "type": "string"
        }
    }
}