{
    "$schema": "http://json-schema.org/draft-04/schema#",
    "title": "RESULTS: buccaneer.do_novo_model",
    "description": "Automated model building",
    "type": "object",
    "properties": {
        "run parameters": {
            "description": "Complete parameters used for running the job",
            "$ref": "parameters/params_buccaneer_do_novo_model.json"
        },
        "results": {
            "description": "Data on the results of the job",
            "$ref": "results/results_buccaneer_do_novo_model.json"
        }
    }
}