{
    "$schema": "http://json-schema.org/draft-04/schema#",
    "title": "RESULTS: cryoef.map_analysis",
    "description": "Analyse distribution of particle orientations",
    "type": "object",
    "properties": {
        "run parameters": {
            "description": "Complete parameters used for running the job",
            "$ref": "parameters/params_cryoef_map_analysis.json"
        },
        "results": {
            "description": "Data on the results of the job",
            "$ref": "results/results_cryoef_map_analysis.json"
        }
    }
}