{
    "$schema": "http://json-schema.org/draft-04/schema#",
    "title": "RESULTS: locscale.postprocess.local_sharpening",
    "description": "Local sharpening of 3D maps",
    "type": "object",
    "properties": {
        "run parameters": {
            "description": "Complete parameters used for running the job",
            "$ref": "parameters/params_locscale_postprocess_local_sharpening.json"
        },
        "results": {
            "description": "Data on the results of the job",
            "$ref": "results/results_locscale_postprocess_local_sharpening.json"
        }
    }
}