{
  "$schema": "http://json-schema.org/draft-04/schema#",
  "title": "RESULTS: molrep.fit_model",
  "description": "Molecular replacement with Molrep",
  "type": "object",
  "properties": {
    "run parameters": {
      "description": "Complete parameters used for running the job",
      "$ref": "parameters/params_molrep_fit_model.json"
    },
    "results": {
      "description": "Data on the results of the job",
      "$ref": "results/results_molrep_fit_model.json"
    }
  }
}