{
    "$schema": "http://json-schema.org/draft-04/schema#",
    "title": "RESULTS: relion.class2d.em.helical",
    "description": "Reference-free classification in 2D for overlapping helical segments",
    "type": "object",
    "properties": {
        "run parameters": {
            "description": "Complete parameters used for running the job",
            "$ref": "parameters/params_relion_class2d_em_helical.json"
        },
        "results": {
            "description": "Data on the results of the job",
            "$ref": "results/results_relion_class2d_em_helical.json"
        }
    }
}