{
    "$schema": "http://json-schema.org/draft-04/schema#",
    "title": "RESULTS: relion.import.movies",
    "description": "Import movies or single-frame micrographs",
    "type": "object",
    "properties": {
        "run parameters": {
            "description": "Complete parameters used for running the job",
            "$ref": "parameters/params_relion_import_movies.json"
        },
        "results": {
            "description": "Data on the results of the job",
            "$ref": "results/results_relion_import_movies.json"
        }
    }
}