{
    "$schema": "http://json-schema.org/draft-04/schema#",
    "title": "RESULTS: relion.localres.resmap",
    "description": "Calculate local resolution with ResMap",
    "type": "object",
    "properties": {
        "run parameters": {
            "description": "Complete parameters used for running the job",
            "$ref": "parameters/params_relion_localres_resmap.json"
        },
        "results": {
            "description": "Data on the results of the job",
            "$ref": "results/results_relion_localres_resmap.json"
        }
    }
}