{
    "$schema": "http://json-schema.org/draft-04/schema#",
    "title": "RESULTS: relion.extract.reextract",
    "description": "Re-extract particles after refinement",
    "type": "object",
    "properties": {
        "run parameters": {
            "description": "Complete parameters used for running the job",
            "$ref": "parameters/params_relion_extract_reextract.json"
        },
        "results": {
            "description": "Data on the results of the job",
            "$ref": "results/results_relion_extract_reextract.json"
        }
    }
}