{
    "$schema": "http://json-schema.org/draft-04/schema#",
    "title": "RESULTS: relion.motioncorr.own",
    "description": "Motion correct and merge multi-frame movies using RELION's implementation",
    "type": "object",
    "properties": {
        "run parameters": {
            "description": "Complete parameters used for running the job",
            "$ref": "parameters/params_relion_motioncorr_own.json"
        },
        "results": {
            "description": "Data on the results of the job",
            "$ref": "results/results_relion_motioncorr_own.json"
        }
    }
}