{
    "$schema": "http://json-schema.org/draft-04/schema#",
    "title": "RESULTS: relion.manualpick.helical",
    "description": "Manually pick particles from micrographs",
    "type": "object",
    "properties": {
        "run parameters": {
            "description": "Complete parameters used for running the job",
            "$ref": "parameters/params_relion_manualpick_helical.json"
        },
        "results": {
            "description": "Data on the results of the job",
            "$ref": "results/results_relion_manualpick_helical.json"
        }
    }
}