{
    "$schema": "http://json-schema.org/draft-04/schema#",
    "title": "RESULTS: relion.autopick.log.helical",
    "description": "Reference-free Laplacian of Gaussian autopicking",
    "type": "object",
    "properties": {
        "run parameters": {
            "description": "Complete parameters used for running the job",
            "$ref": "parameters/params_relion_autopick_log_helical.json"
        },
        "results": {
            "description": "Data on the results of the job",
            "$ref": "results/results_relion_autopick_log_helical.json"
        }
    }
}