{
    "$schema": "http://json-schema.org/draft-04/schema#",
    "title": "RESULTS: servalcat.map_analysis.difference_map",
    "description": "Map calculation",
    "type": "object",
    "properties": {
        "run parameters": {
            "description": "Complete parameters used for running the job",
            "$ref": "parameters/params_servalcat_map_analysis_difference_map.json"
        },
        "results": {
            "description": "Data on the results of the job",
            "$ref": "results/results_servalcat_map_analysis_difference_map.json"
        }
    }
}